Sports Analytics Project
…
→ A | warning: prediction from rank-deficient fit; consider predict(., rankdeficient="NA")

There were issues with some computations   A: x1
There were issues with some computations   A: x1

nbasalary_wf_lm %>%
  fit(nbasalary_train) %>%
  extract_fit_parsnip() %>%
  tidy()

# A tibble: 65 × 5
   term        estimate std.error statistic  p.value
   <chr>          <dbl>     <dbl>     <dbl>    <dbl>
 1 (Intercept)  15.2       0.0948   161.    0       
 2 Age           0.123     0.0204     6.03  1.75e- 9
 3 Num_Teams     0.0434    0.0149     2.92  3.48e- 3
 4 G             0.375     0.0228    16.4   6.79e-59
 5 GS            0.205     0.0305     6.73  1.95e-11
 6 MP           -0.0406    0.0659    -0.616 5.38e- 1
 7 FG            0.246     0.385      0.640 5.22e- 1
 8 FGA           0.434     0.282      1.54  1.25e- 1
 9 FG.           0.0443    0.116      0.382 7.02e- 1
10 X3P           0.272     0.136      2.00  4.60e- 2
# ℹ 55 more rows
…
